{
  "results": [
    {
      "vote_count": 2043,
      "id": 351286,
      "video": false,
      "vote_average": 6.6,
      "title": "Jurassic World: Fallen Kingdom",
      "popularity": 237.876,
      "poster_path": "/c9XxwwhPHdaImA2f1WEfEsbhaFB.jpg",
      "original_language": "en",
      "original_title": "Jurassic World: Fallen Kingdom",
      "genre_ids": [
        28,
        12,
        878
      ],
      "backdrop_path": "/gBmrsugfWpiXRh13Vo3j0WW55qD.jpg",
      "adult": false,
      "overview": "Several years after the demise of Jurassic World, a volcanic eruption threatens the remaining dinosaurs on the island of Isla Nublar. Claire Dearing, the former park manager and founder of the Dinosaur Protection Group, recruits Owen Grady to help prevent the extinction of the dinosaurs once again.",
      "release_date": "2018-06-06"
    },
    {
      "vote_count": 698,
      "id": 363088,
      "video": false,
      "vote_average": 7.1,
      "title": "Ant-Man and the Wasp",
      "popularity": 174.225,
      "poster_path": "/rv1AWImgx386ULjcf62VYaW8zSt.jpg",
      "original_language": "en",
      "original_title": "Ant-Man and the Wasp",
      "genre_ids": [
        28,
        12,
        14,
        35,
        878
      ],
      "backdrop_path": "/6P3c80EOm7BodndGBUAJHHsHKrp.jpg",
      "adult": false,
      "overview": "As Scott Lang awaits expiration of his term of house detention, Hope van Dyne and Dr. Hank Pym involve him in a scheme to rescue Mrs. van Dyne from the micro-universe into which she has fallen, while two groups of schemers converge on them with intentions of stealing Dr. Pym's inventions.",
      "release_date": "2018-07-04"
    },
    {
      "vote_count": 1274,
      "id": 260513,
      "video": false,
      "vote_average": 7.7,
      "title": "Incredibles 2",
      "popularity": 129.972,
      "poster_path": "/x1txcDXkcM65gl7w20PwYSxAYah.jpg",
      "original_language": "en",
      "original_title": "Incredibles 2",
      "genre_ids": [
        28,
        12,
        16,
        10751
      ],
      "backdrop_path": "/mabuNsGJgRuCTuGqjFkWe1xdu19.jpg",
      "adult": false,
      "overview": "Elastigirl springs into action to save the day, while Mr. Incredible faces his greatest challenge yet – taking care of the problems of his three children.",
      "release_date": "2018-06-14"
    },
    {
      "vote_count": 310,
      "id": 442249,
      "video": false,
      "vote_average": 6.2,
      "title": "The First Purge",
      "popularity": 126.592,
      "poster_path": "/2slvblTroiT1lY9bYLK7Amigo1k.jpg",
      "original_language": "en",
      "original_title": "The First Purge",
      "genre_ids": [
        28,
        27,
        878,
        53
      ],
      "backdrop_path": "/dnaitaoCh8MftfYEVnprcuYExZp.jpg",
      "adult": false,
      "overview": "To push the crime rate below one percent for the rest of the year, the New Founding Fathers of America test a sociological theory that vents aggression for one night in one isolated community. But when the violence of oppressors meets the rage of the others, the contagion will explode from the trial-city borders and spread across the nation.",
      "release_date": "2018-07-04"
    },
    {
      "vote_count": 2270,
      "id": 447332,
      "video": false,
      "vote_average": 7.2,
      "title": "A Quiet Place",
      "popularity": 76.057,
      "poster_path": "/nAU74GmpUk7t5iklEp3bufwDq4n.jpg",
      "original_language": "en",
      "original_title": "A Quiet Place",
      "genre_ids": [
        18,
        27,
        53,
        878
      ],
      "backdrop_path": "/roYyPiQDQKmIKUEhO912693tSja.jpg",
      "adult": false,
      "overview": "A family is forced to live in silence while hiding from creatures that hunt by sound.",
      "release_date": "2018-04-03"
    },
    {
      "vote_count": 141,
      "id": 400155,
      "video": false,
      "vote_average": 7.1,
      "title": "Hotel Transylvania 3: Summer Vacation",
      "popularity": 70.326,
      "poster_path": "/gjAFM4xhA5vyLxxKMz38ujlUfDL.jpg",
      "original_language": "en",
      "original_title": "Hotel Transylvania 3: Summer Vacation",
      "genre_ids": [
        10751,
        14,
        35,
        16
      ],
      "backdrop_path": "/m03jul0YdVEOFXEQVUv6pOVQYGL.jpg",
      "adult": false,
      "overview": "Dracula, Mavis, Johnny and the rest of the Drac Pack take a vacation on a luxury Monster Cruise Ship, where Dracula falls in love with the ship's captain, Ericka, who's secretly a descendant of Abraham Van Helsing, the notorious monster slayer.",
      "release_date": "2018-06-30"
    },
    {
      "vote_count": 104,
      "id": 454619,
      "video": false,
      "vote_average": 6.1,
      "title": "Overboard",
      "popularity": 62.248,
      "poster_path": "/qauHzSQJdo9VYX4NKn9PdWnvXOV.jpg",
      "original_language": "en",
      "original_title": "Overboard",
      "genre_ids": [
        10749,
        35
      ],
      "backdrop_path": "/z8MX81fDkYc7hYPpTa6PmHj9url.jpg",
      "adult": false,
      "overview": "A spoiled, wealthy yacht owner is thrown overboard and becomes the target of revenge from his mistreated employee. A remake of the 1987 comedy.",
      "release_date": "2018-05-03"
    },
    {
      "vote_count": 10,
      "id": 493006,
      "video": false,
      "vote_average": 4.5,
      "title": "Detective Conan: Zero the Enforcer",
      "popularity": 61.877,
      "poster_path": "/mMWV5MXn2pkDnnI4vWpy3dRWdNC.jpg",
      "original_language": "ja",
      "original_title": "名探偵コナン ゼロの執行人",
      "genre_ids": [
        16,
        80,
        9648,
        28,
        18
      ],
      "backdrop_path": "/kEqeponciiz6TyuKWtnKSzXzbGa.jpg",
      "adult": false,
      "overview": "There is a sudden explosion at Tokyo Summit's giant Edge of Ocean facility. The shadow of Tōru Amuro, who works for the National Police Agency Security Bureau as Zero, appears at the site. In addition, the \"triple-face\" character is known as Rei Furuya as a detective and Kogorō Mōri's apprentice, and he is also known as Bourbon as a Black Organization member. Kogorō is arrested as a suspect in the case of the explosion. Conan conducts an investigation to prove Kogorō's innocence, but Amuro gets in his way.",
      "release_date": "2018-04-13"
    },
    {
      "vote_count": 51,
      "id": 458423,
      "video": false,
      "vote_average": 7,
      "title": "Mamma Mia! Here We Go Again",
      "popularity": 56.086,
      "poster_path": "/aWicerX4Y7n7tUwRAVHsVcBBpj2.jpg",
      "original_language": "en",
      "original_title": "Mamma Mia! Here We Go Again",
      "genre_ids": [
        35,
        10749,
        10402
      ],
      "backdrop_path": "/8HKwxHZ23sW8wz4yb28IWnAM1M6.jpg",
      "adult": false,
      "overview": "On the Greek island of Kalokairi, the daughter of Donna Sheridan, Sophie, finds out more about her mother's past while seeking guidance on how to handle her pregnancy.",
      "release_date": "2018-07-18"
    },
    {
      "vote_count": 36,
      "id": 345887,
      "video": false,
      "vote_average": 5.6,
      "title": "The Equalizer 2",
      "popularity": 55.875,
      "poster_path": "/cQvc9N6JiMVKqol3wcYrGshsIdZ.jpg",
      "original_language": "en",
      "original_title": "The Equalizer 2",
      "genre_ids": [
        53,
        28,
        80
      ],
      "backdrop_path": "/z6KLDE72SxE1A8JcJTmmnWArOvR.jpg",
      "adult": false,
      "overview": "Robert McCall returns to deliver his special brand of vigilante justice -- but how far will he go when it's someone he loves?",
      "release_date": "2018-07-19"
    },
    {
      "vote_count": 162,
      "id": 447200,
      "video": false,
      "vote_average": 6,
      "title": "Skyscraper",
      "popularity": 54.807,
      "poster_path": "/3NL1FiTEhU4SWOuWk8lkVCbmnYm.jpg",
      "original_language": "en",
      "original_title": "Skyscraper",
      "genre_ids": [
        28,
        53,
        18
      ],
      "backdrop_path": "/oMKFQmoVgB69fyXfSMu0lGlHJP2.jpg",
      "adult": false,
      "overview": "Framed and on the run, a former FBI agent must save his family from a blazing fire in the world's tallest building.",
      "release_date": "2018-07-11"
    },
    {
      "vote_count": 775,
      "id": 429351,
      "video": false,
      "vote_average": 5.1,
      "title": "12 Strong",
      "popularity": 42.825,
      "poster_path": "/j18021qCeRi3yUBtqd2UFj1c0RQ.jpg",
      "original_language": "en",
      "original_title": "12 Strong",
      "genre_ids": [
        10752,
        18,
        36
      ],
      "backdrop_path": "/wacEk5YSNE41QeKseilyytksXmv.jpg",
      "adult": false,
      "overview": "A team of CIA agents and special forces head into Afghanistan in the aftermath of the September 11th attacks in an attempt to dismantle the Taliban.",
      "release_date": "2018-01-16"
    },
    {
      "vote_count": 709,
      "id": 460019,
      "video": false,
      "vote_average": 6.1,
      "title": "Truth or Dare",
      "popularity": 41.864,
      "poster_path": "/kdkNaQYZ7dhM80LsnAGKpH8ca2g.jpg",
      "original_language": "en",
      "original_title": "Truth or Dare",
      "genre_ids": [
        53,
        27
      ],
      "backdrop_path": "/eQ5xu2pQ5Kergubto5PbbUzey28.jpg",
      "adult": false,
      "overview": "A harmless game of \"Truth or Dare\" among friends turns deadly when someone—or something—begins to punish those who tell a lie—or refuse the dare.",
      "release_date": "2018-04-12"
    },
    {
      "vote_count": 5,
      "id": 476292,
      "video": false,
      "vote_average": 6.6,
      "title": "Maquia: When the Promised Flower Blooms",
      "popularity": 33.998,
      "poster_path": "/vOrK1n6VgVCFBwgcq5tMoPCqa47.jpg",
      "original_language": "ja",
      "original_title": "さよならの朝に約束の花をかざろう",
      "genre_ids": [
        16
      ],
      "backdrop_path": "/cfbjFQ14hSTgXChBEvaEjFiUaKb.jpg",
      "adult": false,
      "overview": "A story of encounters and partings interwoven between people; this is a human drama with feelings that touch one's heart gradually, which everyone has experienced at least once.",
      "release_date": "2018-02-24"
    },
    {
      "vote_count": 1295,
      "id": 449176,
      "video": false,
      "vote_average": 8.3,
      "title": "Love, Simon",
      "popularity": 33.748,
      "poster_path": "/5YUYg5q7QfC4IoNwNUtiwdiYKPr.jpg",
      "original_language": "en",
      "original_title": "Love, Simon",
      "genre_ids": [
        35,
        18,
        10749
      ],
      "backdrop_path": "/rqMEeajyzSF4PpJtdCB816Iz8Vr.jpg",
      "adult": false,
      "overview": "Everyone deserves a great love story. But for seventeen-year old Simon Spier it's a little more complicated: he's yet to tell his family or friends he's gay and he doesn't know the identity of the anonymous classmate he's fallen for online.",
      "release_date": "2018-02-16"
    },
    {
      "vote_count": 3,
      "id": 505058,
      "video": false,
      "vote_average": 5.2,
      "title": "Unfriended: Dark Web",
      "popularity": 33.627,
      "poster_path": "/gnj2opTQWGaLtB7kZ4OuMtG2RWa.jpg",
      "original_language": "en",
      "original_title": "Unfriended: Dark Web",
      "genre_ids": [
        27
      ],
      "backdrop_path": "/8hSZGWrJHS1u5udcMGOscezoWc8.jpg",
      "adult": false,
      "overview": "​When a 20-something finds a cache of hidden files on his new laptop, he and his friends are unwittingly thrust into the depths of the dark web.  They soon discover someone has been watching their every move and will go to unimaginable lengths to protect the dark web.",
      "release_date": "2018-07-19"
    },
    {
      "vote_count": 1227,
      "id": 348350,
      "video": false,
      "vote_average": 6.8,
      "title": "Solo: A Star Wars Story",
      "popularity": 33.583,
      "poster_path": "/4oD6VEccFkorEBTEDXtpLAaz0Rl.jpg",
      "original_language": "en",
      "original_title": "Solo: A Star Wars Story",
      "genre_ids": [
        28,
        12,
        878
      ],
      "backdrop_path": "/7LZ0K4FsALrt7OeNIGOVLNuKQRU.jpg",
      "adult": false,
      "overview": "Through a series of daring escapades deep within a dark and dangerous criminal underworld, Han Solo meets his mighty future copilot Chewbacca and encounters the notorious gambler Lando Calrissian.",
      "release_date": "2018-05-23"
    },
    {
      "vote_count": 203,
      "id": 467660,
      "video": false,
      "vote_average": 6.1,
      "title": "Unsane",
      "popularity": 32.505,
      "poster_path": "/jvDBfavZASdKsJunu9VCAtXjLS2.jpg",
      "original_language": "en",
      "original_title": "Unsane",
      "genre_ids": [
        27,
        53
      ],
      "backdrop_path": "/xj6qPnD9DIVvlhTsteXumeF2OsV.jpg",
      "adult": false,
      "overview": "A woman is involuntarily committed to a mental institution where she is confronted by her greatest fear.",
      "release_date": "2018-03-22"
    },
    {
      "vote_count": 662,
      "id": 399174,
      "video": false,
      "vote_average": 7.9,
      "title": "Isle of Dogs",
      "popularity": 31.968,
      "poster_path": "/rSluCePdXXtNiQeE6Na5yRGamhL.jpg",
      "original_language": "en",
      "original_title": "Isle of Dogs",
      "genre_ids": [
        12,
        35,
        16
      ],
      "backdrop_path": "/5YtXsLG9ncjjFyGZjoeV31CGf01.jpg",
      "adult": false,
      "overview": "In the future, an outbreak of canine flu leads the mayor of a Japanese city to banish all dogs to an island that's a garbage dump. The outcasts must soon embark on an epic journey when a 12-year-old boy arrives on the island to find his beloved pet.",
      "release_date": "2018-03-23"
    },
    {
      "vote_count": 201,
      "id": 419831,
      "video": false,
      "vote_average": 6.1,
      "title": "I Kill Giants",
      "popularity": 31.954,
      "poster_path": "/cvit6HDbXHE6W5kGPd47jd0wthQ.jpg",
      "original_language": "en",
      "original_title": "I Kill Giants",
      "genre_ids": [
        18,
        14
      ],
      "backdrop_path": "/lffgWEBiLf9DbDdb86WsGsEcWTg.jpg",
      "adult": false,
      "overview": "Sophia, a new high school student, tries to make friends with Barbara, who tells her that “she kills giants,” protecting this way her hometown and its inhabitants, who do not understand her strange behavior.",
      "release_date": "2018-01-21"
    }
  ],
  "page": 1,
  "total_results": 853,
  "dates": {
    "maximum": "2018-07-22",
    "minimum": "2018-06-04"
  },
  "total_pages": 43
}
